{
  "socketURL": "https://13.229.123.89:9001/",
  "socketMessageEvent": "RTCMultiConnection-Message",
  "socketCustomEvent": "RTCMultiConnection-Custom-Message",
  "port": "9001",
  "enableLogs": "false",
  "autoRebootServerOnFailure": "false",
  "isUseHTTPs": "true",
  "sslKey": "",
  "sslCert": "",
  "sslCabundle": "",
  "enableAdmin": "false",
  "adminUserName": "username",
  "adminPassword": "password"
}
